Chapter 8 Line Graphs | A Simple Cookbook for Wrangling and Visualization
…
Figure 8.1: Basic line graph

8.1.3 Discussion

In this sample data set, the x variable, time, is in one column and the y variable, vo2, is in another:

dat
#> # A tibble: 7 x 8
#>   stage    bf vo2_norm   rer   vo2  vco2    ve    hr
#>   <int> <dbl>    <dbl> <dbl> <dbl> <dbl> <dbl> <dbl>
#> 1     1  30.7     32.0 0.868 2053. 1778.  55.2  136.
#> 2     2  34.7     34.6 0.882 2222. 1958.  59.3  147 
#> 3     3  34.7     37.4 0.912 2402. 2191.  66.7  161.
#> 4     4  38       37.8 0.95  2429  2312.  71.2  172.
#> 5     5  44       41.7 1.00  2675  2686   85.7  178.
#> 6     6  45.7     43.8 1.06  2814. 2981.  99.8  186.
#> # ... with 1 more row
…
Figure 8.5: A variable mapped to colour (left); A variable mapped to linetype (right)

8.3.3 Discussion

The dat_long data has three columns, including the factor var, which we mapped to colour and linetype:

dat_long
#> # A tibble: 14 x 3
#>   stage var     val
#>   <int> <fct> <dbl>
#> 1     1 vo2   2053.
#> 2     1 vco2  1778.
#> 3     2 vo2   2222.
#> 4     2 vco2  1958.
#> 5     3 vo2   2402.
#> 6     3 vco2  2191.
#> # ... with 8 more rows
…
